[
  {
    "id": 276102231,
    "title": "2014",
    "duration": 7475,
    "public": true,
    "is_loved_track": false,
    "collaborative": false,
    "nb_tracks": 26,
    "fans": 78,
    "link": "https:\/\/www.deezer.com\/playlist\/276102231",
    "picture": "https:\/\/api.deezer.com\/playlist\/276102231\/image",
    "picture_small": "https:\/\/e-cdns-images.dzcdn.net\/images\/cover\/633eedc798aa3012c6b61b78f5d7e4c9-f96f9c62426dcb114ffc1f4bba7f2158-775e96864d8204fc1122e6599183e489-35a33939a33ef798249217688acf6043\/56x56-000000-80-0-0.jpg",
    "picture_medium": "https:\/\/e-cdns-images.dzcdn.net\/images\/cover\/633eedc798aa3012c6b61b78f5d7e4c9-f96f9c62426dcb114ffc1f4bba7f2158-775e96864d8204fc1122e6599183e489-35a33939a33ef798249217688acf6043\/250x250-000000-80-0-0.jpg",
    "picture_big": "https:\/\/e-cdns-images.dzcdn.net\/images\/cover\/633eedc798aa3012c6b61b78f5d7e4c9-f96f9c62426dcb114ffc1f4bba7f2158-775e96864d8204fc1122e6599183e489-35a33939a33ef798249217688acf6043\/500x500-000000-80-0-0.jpg",
    "picture_xl": "https:\/\/e-cdns-images.dzcdn.net\/images\/cover\/633eedc798aa3012c6b61b78f5d7e4c9-f96f9c62426dcb114ffc1f4bba7f2158-775e96864d8204fc1122e6599183e489-35a33939a33ef798249217688acf6043\/1000x1000-000000-80-0-0.jpg",
    "checksum": "cf3781cff592700d788df246b6ca3685",
    "tracklist": "https:\/\/api.deezer.com\/playlist\/276102231\/tracks",
    "creation_date": "2013-11-06 18:00:00",
    "md5_image": "633eedc798aa3012c6b61b78f5d7e4c9-f96f9c62426dcb114ffc1f4bba7f2158-775e96864d8204fc1122e6599183e489-35a33939a33ef798249217688acf6043",
    "picture_type": "cover",
    "time_add": 1391007284,
    "time_mod": 1392922239,
    "creator": {
        "id": 5,
        "name": "Daniel Marhely",
        "tracklist": "https:\/\/api.deezer.com\/user\/5\/flow",
        "type": "user"
    },
    "type": "playlist"
  },
  {
    "id": 859439071,
    "title": "2015",
    "duration": 9553,
    "public": true,
    "is_loved_track": false,
    "collaborative": false,
    "nb_tracks": 39,
    "fans": 51,
    "link": "https:\/\/www.deezer.com\/playlist\/859439071",
    "picture": "https:\/\/api.deezer.com\/playlist\/859439071\/image",
    "picture_small": "https:\/\/e-cdns-images.dzcdn.net\/images\/cover\/c70037fbce64f7141cc1947815876213-609aa4550752394cd52bf2955e60597d-3f6163aa38a75af10da17475693e2343-c0477ebef2a9f00f3634b5b8809e0f87\/56x56-000000-80-0-0.jpg",
    "picture_medium": "https:\/\/e-cdns-images.dzcdn.net\/images\/cover\/c70037fbce64f7141cc1947815876213-609aa4550752394cd52bf2955e60597d-3f6163aa38a75af10da17475693e2343-c0477ebef2a9f00f3634b5b8809e0f87\/250x250-000000-80-0-0.jpg",
    "picture_big": "https:\/\/e-cdns-images.dzcdn.net\/images\/cover\/c70037fbce64f7141cc1947815876213-609aa4550752394cd52bf2955e60597d-3f6163aa38a75af10da17475693e2343-c0477ebef2a9f00f3634b5b8809e0f87\/500x500-000000-80-0-0.jpg",
    "picture_xl": "https:\/\/e-cdns-images.dzcdn.net\/images\/cover\/c70037fbce64f7141cc1947815876213-609aa4550752394cd52bf2955e60597d-3f6163aa38a75af10da17475693e2343-c0477ebef2a9f00f3634b5b8809e0f87\/1000x1000-000000-80-0-0.jpg",
    "checksum": "9e35df9e0cb60a641d0e1694ffd35820",
    "tracklist": "https:\/\/api.deezer.com\/playlist\/859439071\/tracks",
    "creation_date": "2014-05-06 11:31:18",
    "md5_image": "c70037fbce64f7141cc1947815876213-609aa4550752394cd52bf2955e60597d-3f6163aa38a75af10da17475693e2343-c0477ebef2a9f00f3634b5b8809e0f87",
    "picture_type": "cover",
    "time_add": 1399375878,
    "time_mod": 1409072680,
    "creator": {
        "id": 5,
        "name": "Daniel Marhely",
        "tracklist": "https:\/\/api.deezer.com\/user\/5\/flow",
        "type": "user"
    },
    "type": "playlist"
  },
  {
    "id": 57118901,
    "title": "abba",
    "duration": 4147,
    "public": true,
    "is_loved_track": false,
    "collaborative": false,
    "nb_tracks": 14,
    "fans": 51,
    "link": "https:\/\/www.deezer.com\/playlist\/57118901",
    "picture": "https:\/\/api.deezer.com\/playlist\/57118901\/image",
    "picture_small": "https:\/\/e-cdns-images.dzcdn.net\/images\/cover\/8f941618e73373dfc52ee9091704bdb0-37d8c72cc951e0241e738a17038156ad-835bd91729e4a1e555781d32919368f5-772dab997ff5a8085657e0991db41e1a\/56x56-000000-80-0-0.jpg",
    "picture_medium": "https:\/\/e-cdns-images.dzcdn.net\/images\/cover\/8f941618e73373dfc52ee9091704bdb0-37d8c72cc951e0241e738a17038156ad-835bd91729e4a1e555781d32919368f5-772dab997ff5a8085657e0991db41e1a\/250x250-000000-80-0-0.jpg",
    "picture_big": "https:\/\/e-cdns-images.dzcdn.net\/images\/cover\/8f941618e73373dfc52ee9091704bdb0-37d8c72cc951e0241e738a17038156ad-835bd91729e4a1e555781d32919368f5-772dab997ff5a8085657e0991db41e1a\/500x500-000000-80-0-0.jpg",
    "picture_xl": "https:\/\/e-cdns-images.dzcdn.net\/images\/cover\/8f941618e73373dfc52ee9091704bdb0-37d8c72cc951e0241e738a17038156ad-835bd91729e4a1e555781d32919368f5-772dab997ff5a8085657e0991db41e1a\/1000x1000-000000-80-0-0.jpg",
    "checksum": "418198acbea0a58859da9574160d7cc8",
    "tracklist": "https:\/\/api.deezer.com\/playlist\/57118901\/tracks",
    "creation_date": "2013-11-06 18:00:00",
    "md5_image": "8f941618e73373dfc52ee9091704bdb0-37d8c72cc951e0241e738a17038156ad-835bd91729e4a1e555781d32919368f5-772dab997ff5a8085657e0991db41e1a",
    "picture_type": "cover",
    "time_add": 1381500697,
    "time_mod": 1383760800,
    "creator": {
        "id": 5,
        "name": "Daniel Marhely",
        "tracklist": "https:\/\/api.deezer.com\/user\/5\/flow",
        "type": "user"
    },
    "type": "playlist"
  },
  {
    "id": 152068821,
    "title": "A moi",
    "duration": 6375,
    "public": true,
    "is_loved_track": false,
    "collaborative": false,
    "nb_tracks": 28,
    "fans": 228,
    "link": "https:\/\/www.deezer.com\/playlist\/152068821",
    "picture": "https:\/\/api.deezer.com\/playlist\/152068821\/image",
    "picture_small": "https:\/\/e-cdns-images.dzcdn.net\/images\/cover\/0e087e0849651f7796b655bbe6c95b9c\/56x56-000000-80-0-0.jpg",
    "picture_medium": "https:\/\/e-cdns-images.dzcdn.net\/images\/cover\/0e087e0849651f7796b655bbe6c95b9c\/250x250-000000-80-0-0.jpg",
    "picture_big": "https:\/\/e-cdns-images.dzcdn.net\/images\/cover\/0e087e0849651f7796b655bbe6c95b9c\/500x500-000000-80-0-0.jpg",
    "picture_xl": "https:\/\/e-cdns-images.dzcdn.net\/images\/cover\/0e087e0849651f7796b655bbe6c95b9c\/1000x1000-000000-80-0-0.jpg",
    "checksum": "83f53f146ade65799fceaae1a185ccda",
    "tracklist": "https:\/\/api.deezer.com\/playlist\/152068821\/tracks",
    "creation_date": "2013-11-06 18:00:00",
    "md5_image": "0e087e0849651f7796b655bbe6c95b9c",
    "picture_type": "cover",
    "time_add": 3600,
    "time_mod": 1383760800,
    "creator": {
        "id": 5,
        "name": "Daniel Marhely",
        "tracklist": "https:\/\/api.deezer.com\/user\/5\/flow",
        "type": "user"
    },
    "type": "playlist"
  },
  {
    "id": 152068701,
    "title": "Another new playlist",
    "duration": 17345,
    "public": true,
    "is_loved_track": false,
    "collaborative": false,
    "nb_tracks": 79,
    "fans": 23,
    "link": "https:\/\/www.deezer.com\/playlist\/152068701",
    "picture": "https:\/\/api.deezer.com\/playlist\/152068701\/image",
    "picture_small": "https:\/\/e-cdns-images.dzcdn.net\/images\/cover\/7d0c0f800995e1e0f79abe96f662b5f4-9b854db21f5defeb26f9600d9f9416c7-931a1749e31515b350037bad7ed977d9-bb1b239621abfe024db4804f94f6f02c\/56x56-000000-80-0-0.jpg",
    "picture_medium": "https:\/\/e-cdns-images.dzcdn.net\/images\/cover\/7d0c0f800995e1e0f79abe96f662b5f4-9b854db21f5defeb26f9600d9f9416c7-931a1749e31515b350037bad7ed977d9-bb1b239621abfe024db4804f94f6f02c\/250x250-000000-80-0-0.jpg",
    "picture_big": "https:\/\/e-cdns-images.dzcdn.net\/images\/cover\/7d0c0f800995e1e0f79abe96f662b5f4-9b854db21f5defeb26f9600d9f9416c7-931a1749e31515b350037bad7ed977d9-bb1b239621abfe024db4804f94f6f02c\/500x500-000000-80-0-0.jpg",
    "picture_xl": "https:\/\/e-cdns-images.dzcdn.net\/images\/cover\/7d0c0f800995e1e0f79abe96f662b5f4-9b854db21f5defeb26f9600d9f9416c7-931a1749e31515b350037bad7ed977d9-bb1b239621abfe024db4804f94f6f02c\/1000x1000-000000-80-0-0.jpg",
    "checksum": "e322a676b17e1a723350df6cc79f2db5",
    "tracklist": "https:\/\/api.deezer.com\/playlist\/152068701\/tracks",
    "creation_date": "2013-11-06 18:00:00",
    "md5_image": "7d0c0f800995e1e0f79abe96f662b5f4-9b854db21f5defeb26f9600d9f9416c7-931a1749e31515b350037bad7ed977d9-bb1b239621abfe024db4804f94f6f02c",
    "picture_type": "cover",
    "time_add": 1375467536,
    "time_mod": 1383760800,
    "creator": {
        "id": 5,
        "name": "Daniel Marhely",
        "tracklist": "https:\/\/api.deezer.com\/user\/5\/flow",
        "type": "user"
    },
    "type": "playlist"
  }
]
